ESVD E(FS) M_FS_X M_FS_Y M_FS_Z
1.0100000E-01 1.9411753E+01 9.9966097E-01 1.4231738E-04 5.7948830E-05
1.1460471E-01 1.9394806E+01 9.9952704E-01 1.6362870E-04 -1.0170795E-05
1.2820942E-01 1.9377788E+01 9.9934333E-01 2.4171026E-04 -1.5404561E-04
1.4181413E-01 1.9360911E+01 9.9916542E-01 1.6419657E-04 -1.3499004E-05
1.5541885E-01 1.9344289E+01 9.9895516E-01 1.7050086E-04 -1.8910422E-05
1.6902356E-01 1.9327997E+01 9.9873696E-01 2.2145248E-04 -8.5420353E-05
1.8262827E-01 1.9312147E+01 9.9850446E-01 1.9463891E-04 -3.9041026E-05
1.9623298E-01 1.9296700E+01 9.9825364E-01 1.9859227E-04 -3.4353020E-05
2.0983769E-01 1.9281670E+01 9.9798634E-01 3.4820793E-04 -2.3230818E-04
2.2344240E-01 1.9267080E+01 9.9772499E-01 4.8768202E-04 -4.1705195E-04
2.3704711E-01 1.9252952E+01 9.9745700E-01 2.5964242E-04 -8.5076887E-05
